[gd_scene load_steps=4 format=3 uid="uid://dvq2c55s607ee"]

[ext_resource type="Texture2D" uid="uid://cwgsnyy8ditkf" path="res://sprites/pack/roguelikeSheet_transparent.png" id="1"]
[ext_resource type="Script" path="res://scripts/environment/Cactus.gd" id="1_b3xky"]

[sub_resource type="CircleShape2D" id="1"]
radius = 7.0

[node name="Cactus" type="Area2D"]
script = ExtResource("1_b3xky")

[node name="CollisionShape2D" type="CollisionShape2D" parent="."]
shape = SubResource("1")

[node name="Sprite2D" type="Sprite2D" parent="."]
texture = ExtResource("1")
region_enabled = true
region_rect = Rect2(374, 153, 16, 16)

[connection signal="area_entered" from="." to="." method="_on_area_entered"]
