[gd_scene load_steps=8 format=3 uid="uid://h0pjed41lu5b"]

[ext_resource type="Script" path="res://scripts/environment/Teleport.gd" id="1_0aigp"]
[ext_resource type="FontFile" uid="uid://mpe86homv2rs" path="res://fonts/kenvector_future.ttf" id="2"]
[ext_resource type="Texture2D" uid="uid://5aychnrs15bo" path="res://sprites/ui/UIbg.png" id="3_rsh7t"]
[ext_resource type="Animation" uid="uid://ciu6tvblgbms" path="res://animations/appear_anim.res" id="4_v4j3r"]

[sub_resource type="CircleShape2D" id="1"]
radius = 16.0

[sub_resource type="FontFile" id="FontFile_vsl4l"]
subpixel_positioning = 0
msdf_pixel_range = 14
msdf_size = 128
fallbacks = Array[Font]([ExtResource("2")])
face_index = null
embolden = null
transform = null
cache/0/16/0/ascent = 0.0
cache/0/16/0/descent = 0.0
cache/0/16/0/underline_position = 0.0
cache/0/16/0/underline_thickness = 0.0
cache/0/16/0/scale = 1.0
cache/0/16/0/kerning_overrides/16/0 = Vector2(0, 0)

[sub_resource type="AnimationLibrary" id="AnimationLibrary_s708x"]
_data = {
"appear_anim": ExtResource("4_v4j3r")
}

[node name="Teleport" type="Area2D"]
collision_layer = 2
script = ExtResource("1_0aigp")
message = "Press SPACE to enter"

[node name="CollisionShape2D" type="CollisionShape2D" parent="."]
shape = SubResource("1")

[node name="CanvasLayer" type="CanvasLayer" parent="."]

[node name="TextureRect" type="TextureRect" parent="CanvasLayer"]
modulate = Color(1, 1, 1, 0)
self_modulate = Color(0.760784, 0.662745, 0.623529, 1)
anchors_preset = 5
anchor_left = 0.5
anchor_right = 0.5
offset_left = -150.0
offset_top = 120.0
offset_right = 215.0
offset_bottom = 266.0
grow_horizontal = 2
texture = ExtResource("3_rsh7t")
expand_mode = 1

[node name="Label" type="Label" parent="CanvasLayer/TextureRect"]
modulate = Color(1, 1, 1, 0)
layout_mode = 1
anchors_preset = -1
anchor_right = 1.0
anchor_bottom = 1.0
offset_left = 4.0
offset_top = 2.0
offset_right = -2.0
offset_bottom = -5.0
theme_override_fonts/font = SubResource("FontFile_vsl4l")
text = "Press SPACE to enter the house."
autowrap_mode = 2

[node name="AnimationPlayer" type="AnimationPlayer" parent="."]
libraries = {
"": SubResource("AnimationLibrary_s708x")
}

[connection signal="area_entered" from="." to="." method="_on_Teleport_area_entered"]
[connection signal="area_exited" from="." to="." method="_on_Teleport_area_exited"]
